Lab-6
…
Q6.

samples %>%
  group_by(medical_specialty) %>%
  unnest_tokens(token, transcription) %>%
  anti_join(stop_words, by = c("token" = "word")) %>%
  count(token) %>%
  top_n(5,n)

# A tibble: 209 × 3
# Groups:   medical_specialty [40]
   medical_specialty       token         n
   <chr>                   <chr>     <int>
 1 " Allergy / Immunology" allergies    21
 2 " Allergy / Immunology" history      38
 3 " Allergy / Immunology" nasal        13
 4 " Allergy / Immunology" noted        23
 5 " Allergy / Immunology" past         13
 6 " Allergy / Immunology" patient      22
 7 " Autopsy"              1            66
 8 " Autopsy"              anterior     47
 9 " Autopsy"              inch         59
10 " Autopsy"              left         83
# ℹ 199 more rows
…
